^D:\USERS\USER-PC\DOCUMENTS\VISUAL STUDIO 2013\PROJECTS\YEAR2(2017)\TRIVIA PROJECT\SERVER\SERVER\HELPER.CPP
D:\USERS\USER-PC\DOCUMENTS\VISUAL STUDIO 2013\PROJECTS\YEAR2(2017)\TRIVIA PROJECT\SERVER\SERVER\SERVER\DEBUG\VC120.PDB
D:\USERS\USER-PC\DOCUMENTS\VISUAL STUDIO 2013\PROJECTS\YEAR2(2017)\TRIVIA PROJECT\SERVER\SERVER\SERVER\DEBUG\VC120.IDB
D:\USERS\USER-PC\DOCUMENTS\VISUAL STUDIO 2013\PROJECTS\YEAR2(2017)\TRIVIA PROJECT\SERVER\SERVER\SERVER\DEBUG\HELPER.OBJ
^D:\USERS\USER-PC\DOCUMENTS\VISUAL STUDIO 2013\PROJECTS\YEAR2(2017)\TRIVIA PROJECT\SERVER\SERVER\SQLITE3.C
D:\USERS\USER-PC\DOCUMENTS\VISUAL STUDIO 2013\PROJECTS\YEAR2(2017)\TRIVIA PROJECT\SERVER\SERVER\SERVER\DEBUG\VC120.PDB
D:\USERS\USER-PC\DOCUMENTS\VISUAL STUDIO 2013\PROJECTS\YEAR2(2017)\TRIVIA PROJECT\SERVER\SERVER\SERVER\DEBUG\VC120.IDB
D:\USERS\USER-PC\DOCUMENTS\VISUAL STUDIO 2013\PROJECTS\YEAR2(2017)\TRIVIA PROJECT\SERVER\SERVER\SERVER\DEBUG\SQLITE3.OBJ
^D:\USERS\USER-PC\DOCUMENTS\VISUAL STUDIO 2013\PROJECTS\YEAR2(2017)\TRIVIA PROJECT\SERVER\SERVER\SERVER\SOURCE.CPP
D:\USERS\USER-PC\DOCUMENTS\VISUAL STUDIO 2013\PROJECTS\YEAR2(2017)\TRIVIA PROJECT\SERVER\SERVER\SERVER\DEBUG\VC120.PDB
D:\USERS\USER-PC\DOCUMENTS\VISUAL STUDIO 2013\PROJECTS\YEAR2(2017)\TRIVIA PROJECT\SERVER\SERVER\SERVER\DEBUG\VC120.IDB
D:\USERS\USER-PC\DOCUMENTS\VISUAL STUDIO 2013\PROJECTS\YEAR2(2017)\TRIVIA PROJECT\SERVER\SERVER\SERVER\DEBUG\SOURCE.OBJ
^D:\USERS\USER-PC\DOCUMENTS\VISUAL STUDIO 2013\PROJECTS\YEAR2(2017)\TRIVIA PROJECT\SERVER\HELPER.CPP
D:\USERS\USER-PC\DOCUMENTS\VISUAL STUDIO 2013\PROJECTS\YEAR2(2017)\TRIVIA PROJECT\SERVER\SERVER\SERVER\DEBUG\VC120.PDB
D:\USERS\USER-PC\DOCUMENTS\VISUAL STUDIO 2013\PROJECTS\YEAR2(2017)\TRIVIA PROJECT\SERVER\SERVER\SERVER\DEBUG\VC120.IDB
D:\USERS\USER-PC\DOCUMENTS\VISUAL STUDIO 2013\PROJECTS\YEAR2(2017)\TRIVIA PROJECT\SERVER\SERVER\SERVER\DEBUG\HELPER.OBJ
^D:\USERS\USER-PC\DOCUMENTS\VISUAL STUDIO 2013\PROJECTS\YEAR2(2017)\TRIVIA PROJECT\SERVER\SQLITE3.C
D:\USERS\USER-PC\DOCUMENTS\VISUAL STUDIO 2013\PROJECTS\YEAR2(2017)\TRIVIA PROJECT\SERVER\SERVER\SERVER\DEBUG\VC120.PDB
D:\USERS\USER-PC\DOCUMENTS\VISUAL STUDIO 2013\PROJECTS\YEAR2(2017)\TRIVIA PROJECT\SERVER\SERVER\SERVER\DEBUG\VC120.IDB
D:\USERS\USER-PC\DOCUMENTS\VISUAL STUDIO 2013\PROJECTS\YEAR2(2017)\TRIVIA PROJECT\SERVER\SERVER\SERVER\DEBUG\SQLITE3.OBJ
^D:\USERS\USER-PC\DOCUMENTS\VISUAL STUDIO 2013\PROJECTS\YEAR2(2017)\TRIVIA PROJECT\SERVER\SERVER\SERVER\HELPER.CPP
D:\USERS\USER-PC\DOCUMENTS\VISUAL STUDIO 2013\PROJECTS\YEAR2(2017)\TRIVIA PROJECT\SERVER\SERVER\SERVER\DEBUG\VC120.PDB
D:\USERS\USER-PC\DOCUMENTS\VISUAL STUDIO 2013\PROJECTS\YEAR2(2017)\TRIVIA PROJECT\SERVER\SERVER\SERVER\DEBUG\VC120.IDB
^D:\USERS\USER-PC\DOCUMENTS\VISUAL STUDIO 2013\PROJECTS\YEAR2(2017)\TRIVIA PROJECT\SERVER\SERVER\SERVER\SQLITE3.C
D:\USERS\USER-PC\DOCUMENTS\VISUAL STUDIO 2013\PROJECTS\YEAR2(2017)\TRIVIA PROJECT\SERVER\SERVER\SERVER\DEBUG\VC120.PDB
D:\USERS\USER-PC\DOCUMENTS\VISUAL STUDIO 2013\PROJECTS\YEAR2(2017)\TRIVIA PROJECT\SERVER\SERVER\SERVER\DEBUG\VC120.IDB
D:\USERS\USER-PC\DOCUMENTS\VISUAL STUDIO 2013\PROJECTS\YEAR2(2017)\TRIVIA PROJECT\SERVER\SERVER\SERVER\DEBUG\SQLITE3.OBJ
^D:\USERS\USER-PC\DOCUMENTS\VISUAL STUDIO 2013\PROJECTS\YEAR2(2017)\TRIVIA PROJECT\SERVER\SERVER\SERVER\DATABASE.CPP|D:\USERS\USER-PC\DOCUMENTS\VISUAL STUDIO 2013\PROJECTS\YEAR2(2017)\TRIVIA PROJECT\SERVER\SERVER\SERVER\GAME.CPP|D:\USERS\USER-PC\DOCUMENTS\VISUAL STUDIO 2013\PROJECTS\YEAR2(2017)\TRIVIA PROJECT\SERVER\SERVER\SERVER\HELPER.CPP|D:\USERS\USER-PC\DOCUMENTS\VISUAL STUDIO 2013\PROJECTS\YEAR2(2017)\TRIVIA PROJECT\SERVER\SERVER\SERVER\QUESTION.CPP|D:\USERS\USER-PC\DOCUMENTS\VISUAL STUDIO 2013\PROJECTS\YEAR2(2017)\TRIVIA PROJECT\SERVER\SERVER\SERVER\RECIEVEDMESSAGES.CPP|D:\USERS\USER-PC\DOCUMENTS\VISUAL STUDIO 2013\PROJECTS\YEAR2(2017)\TRIVIA PROJECT\SERVER\SERVER\SERVER\ROOM.CPP|D:\USERS\USER-PC\DOCUMENTS\VISUAL STUDIO 2013\PROJECTS\YEAR2(2017)\TRIVIA PROJECT\SERVER\SERVER\SERVER\TRIVIASERVER.CPP|D:\USERS\USER-PC\DOCUMENTS\VISUAL STUDIO 2013\PROJECTS\YEAR2(2017)\TRIVIA PROJECT\SERVER\SERVER\SERVER\USER.CPP
D:\USERS\USER-PC\DOCUMENTS\VISUAL STUDIO 2013\PROJECTS\YEAR2(2017)\TRIVIA PROJECT\SERVER\SERVER\SERVER\DEBUG\VC120.PDB
D:\USERS\USER-PC\DOCUMENTS\VISUAL STUDIO 2013\PROJECTS\YEAR2(2017)\TRIVIA PROJECT\SERVER\SERVER\SERVER\DEBUG\VC120.IDB
D:\USERS\USER-PC\DOCUMENTS\VISUAL STUDIO 2013\PROJECTS\YEAR2(2017)\TRIVIA PROJECT\SERVER\SERVER\SERVER\DEBUG\HELPER.OBJ
^D:\USERS\USER-PC\DOCUMENTS\VISUAL STUDIO 2013\PROJECTS\YEAR2(2017)\TRIVIA PROJECT\SERVER\SERVER\SERVER\DATABASE.CPP
D:\USERS\USER-PC\DOCUMENTS\VISUAL STUDIO 2013\PROJECTS\YEAR2(2017)\TRIVIA PROJECT\SERVER\SERVER\SERVER\DEBUG\VC120.PDB
D:\USERS\USER-PC\DOCUMENTS\VISUAL STUDIO 2013\PROJECTS\YEAR2(2017)\TRIVIA PROJECT\SERVER\SERVER\SERVER\DEBUG\VC120.IDB
D:\USERS\USER-PC\DOCUMENTS\VISUAL STUDIO 2013\PROJECTS\YEAR2(2017)\TRIVIA PROJECT\SERVER\SERVER\SERVER\DEBUG\DATABASE.OBJ
^D:\USERS\USER-PC\DOCUMENTS\VISUAL STUDIO 2013\PROJECTS\YEAR2(2017)\TRIVIA PROJECT\SERVER\SERVER\SERVER\GAME.CPP
D:\USERS\USER-PC\DOCUMENTS\VISUAL STUDIO 2013\PROJECTS\YEAR2(2017)\TRIVIA PROJECT\SERVER\SERVER\SERVER\DEBUG\VC120.PDB
D:\USERS\USER-PC\DOCUMENTS\VISUAL STUDIO 2013\PROJECTS\YEAR2(2017)\TRIVIA PROJECT\SERVER\SERVER\SERVER\DEBUG\VC120.IDB
^D:\USERS\USER-PC\DOCUMENTS\VISUAL STUDIO 2013\PROJECTS\YEAR2(2017)\TRIVIA PROJECT\SERVER\SERVER\SERVER\QUESTION.CPP
D:\USERS\USER-PC\DOCUMENTS\VISUAL STUDIO 2013\PROJECTS\YEAR2(2017)\TRIVIA PROJECT\SERVER\SERVER\SERVER\DEBUG\VC120.PDB
^D:\USERS\USER-PC\DOCUMENTS\VISUAL STUDIO 2013\PROJECTS\YEAR2(2017)\TRIVIA PROJECT\SERVER\SERVER\SERVER\RECIEVEDMESSAGES.CPP
D:\USERS\USER-PC\DOCUMENTS\VISUAL STUDIO 2013\PROJECTS\YEAR2(2017)\TRIVIA PROJECT\SERVER\SERVER\SERVER\DEBUG\VC120.PDB
^D:\USERS\USER-PC\DOCUMENTS\VISUAL STUDIO 2013\PROJECTS\YEAR2(2017)\TRIVIA PROJECT\SERVER\SERVER\SERVER\ROOM.CPP
D:\USERS\USER-PC\DOCUMENTS\VISUAL STUDIO 2013\PROJECTS\YEAR2(2017)\TRIVIA PROJECT\SERVER\SERVER\SERVER\DEBUG\VC120.PDB
D:\USERS\USER-PC\DOCUMENTS\VISUAL STUDIO 2013\PROJECTS\YEAR2(2017)\TRIVIA PROJECT\SERVER\SERVER\SERVER\DEBUG\VC120.IDB
D:\USERS\USER-PC\DOCUMENTS\VISUAL STUDIO 2013\PROJECTS\YEAR2(2017)\TRIVIA PROJECT\SERVER\SERVER\SERVER\DEBUG\ROOM.OBJ
^D:\USERS\USER-PC\DOCUMENTS\VISUAL STUDIO 2013\PROJECTS\YEAR2(2017)\TRIVIA PROJECT\SERVER\SERVER\SERVER\TRIVIASERVER.CPP
D:\USERS\USER-PC\DOCUMENTS\VISUAL STUDIO 2013\PROJECTS\YEAR2(2017)\TRIVIA PROJECT\SERVER\SERVER\SERVER\DEBUG\VC120.PDB
D:\USERS\USER-PC\DOCUMENTS\VISUAL STUDIO 2013\PROJECTS\YEAR2(2017)\TRIVIA PROJECT\SERVER\SERVER\SERVER\DEBUG\VC120.IDB
D:\USERS\USER-PC\DOCUMENTS\VISUAL STUDIO 2013\PROJECTS\YEAR2(2017)\TRIVIA PROJECT\SERVER\SERVER\SERVER\DEBUG\TRIVIASERVER.OBJ
^D:\USERS\USER-PC\DOCUMENTS\VISUAL STUDIO 2013\PROJECTS\YEAR2(2017)\TRIVIA PROJECT\SERVER\SERVER\SERVER\USER.CPP
D:\USERS\USER-PC\DOCUMENTS\VISUAL STUDIO 2013\PROJECTS\YEAR2(2017)\TRIVIA PROJECT\SERVER\SERVER\SERVER\DEBUG\VC120.PDB
D:\USERS\USER-PC\DOCUMENTS\VISUAL STUDIO 2013\PROJECTS\YEAR2(2017)\TRIVIA PROJECT\SERVER\SERVER\SERVER\DEBUG\VC120.IDB
D:\USERS\USER-PC\DOCUMENTS\VISUAL STUDIO 2013\PROJECTS\YEAR2(2017)\TRIVIA PROJECT\SERVER\SERVER\SERVER\DEBUG\USER.OBJ
^D:\USERS\USER-PC\DOCUMENTS\VISUAL STUDIO 2013\PROJECTS\YEAR2(2017)\TRIVIA PROJECT\SERVER\SERVER\SERVER\DATABASE.CPP|D:\USERS\USER-PC\DOCUMENTS\VISUAL STUDIO 2013\PROJECTS\YEAR2(2017)\TRIVIA PROJECT\SERVER\SERVER\SERVER\GAME.CPP|D:\USERS\USER-PC\DOCUMENTS\VISUAL STUDIO 2013\PROJECTS\YEAR2(2017)\TRIVIA PROJECT\SERVER\SERVER\SERVER\QUESTION.CPP|D:\USERS\USER-PC\DOCUMENTS\VISUAL STUDIO 2013\PROJECTS\YEAR2(2017)\TRIVIA PROJECT\SERVER\SERVER\SERVER\RECIEVEDMESSAGES.CPP|D:\USERS\USER-PC\DOCUMENTS\VISUAL STUDIO 2013\PROJECTS\YEAR2(2017)\TRIVIA PROJECT\SERVER\SERVER\SERVER\ROOM.CPP|D:\USERS\USER-PC\DOCUMENTS\VISUAL STUDIO 2013\PROJECTS\YEAR2(2017)\TRIVIA PROJECT\SERVER\SERVER\SERVER\TRIVIASERVER.CPP|D:\USERS\USER-PC\DOCUMENTS\VISUAL STUDIO 2013\PROJECTS\YEAR2(2017)\TRIVIA PROJECT\SERVER\SERVER\SERVER\USER.CPP
D:\USERS\USER-PC\DOCUMENTS\VISUAL STUDIO 2013\PROJECTS\YEAR2(2017)\TRIVIA PROJECT\SERVER\SERVER\SERVER\DEBUG\VC120.PDB
D:\USERS\USER-PC\DOCUMENTS\VISUAL STUDIO 2013\PROJECTS\YEAR2(2017)\TRIVIA PROJECT\SERVER\SERVER\SERVER\DEBUG\VC120.IDB
D:\USERS\USER-PC\DOCUMENTS\VISUAL STUDIO 2013\PROJECTS\YEAR2(2017)\TRIVIA PROJECT\SERVER\SERVER\SERVER\DEBUG\QUESTION.OBJ
^D:\USERS\USER-PC\DOCUMENTS\VISUAL STUDIO 2013\PROJECTS\YEAR2(2017)\TRIVIA PROJECT\SERVER\SERVER\SERVER\DATABASE.CPP|D:\USERS\USER-PC\DOCUMENTS\VISUAL STUDIO 2013\PROJECTS\YEAR2(2017)\TRIVIA PROJECT\SERVER\SERVER\SERVER\GAME.CPP|D:\USERS\USER-PC\DOCUMENTS\VISUAL STUDIO 2013\PROJECTS\YEAR2(2017)\TRIVIA PROJECT\SERVER\SERVER\SERVER\RECIEVEDMESSAGES.CPP|D:\USERS\USER-PC\DOCUMENTS\VISUAL STUDIO 2013\PROJECTS\YEAR2(2017)\TRIVIA PROJECT\SERVER\SERVER\SERVER\ROOM.CPP|D:\USERS\USER-PC\DOCUMENTS\VISUAL STUDIO 2013\PROJECTS\YEAR2(2017)\TRIVIA PROJECT\SERVER\SERVER\SERVER\SOURCE.CPP|D:\USERS\USER-PC\DOCUMENTS\VISUAL STUDIO 2013\PROJECTS\YEAR2(2017)\TRIVIA PROJECT\SERVER\SERVER\SERVER\TRIVIASERVER.CPP|D:\USERS\USER-PC\DOCUMENTS\VISUAL STUDIO 2013\PROJECTS\YEAR2(2017)\TRIVIA PROJECT\SERVER\SERVER\SERVER\USER.CPP|D:\USERS\USER-PC\DOCUMENTS\VISUAL STUDIO 2013\PROJECTS\YEAR2(2017)\TRIVIA PROJECT\SERVER\SERVER\SERVER\WSAINITIALIZER.CPP
D:\USERS\USER-PC\DOCUMENTS\VISUAL STUDIO 2013\PROJECTS\YEAR2(2017)\TRIVIA PROJECT\SERVER\SERVER\SERVER\DEBUG\VC120.PDB
D:\USERS\USER-PC\DOCUMENTS\VISUAL STUDIO 2013\PROJECTS\YEAR2(2017)\TRIVIA PROJECT\SERVER\SERVER\SERVER\DEBUG\VC120.IDB
D:\USERS\USER-PC\DOCUMENTS\VISUAL STUDIO 2013\PROJECTS\YEAR2(2017)\TRIVIA PROJECT\SERVER\SERVER\SERVER\DEBUG\WSAINITIALIZER.OBJ
^D:\USERS\USER-PC\DOCUMENTS\VISUAL STUDIO 2013\PROJECTS\YEAR2(2017)\TRIVIA PROJECT\SERVER\SERVER\SERVER\WSAINITIALIZER.CPP
D:\USERS\USER-PC\DOCUMENTS\VISUAL STUDIO 2013\PROJECTS\YEAR2(2017)\TRIVIA PROJECT\SERVER\SERVER\SERVER\DEBUG\VC120.PDB
^D:\USERS\USER-PC\DOCUMENTS\VISUAL STUDIO 2013\PROJECTS\YEAR2(2017)\TRIVIA PROJECT\SERVER\SERVER\SERVER\DATABASE.CPP|D:\USERS\USER-PC\DOCUMENTS\VISUAL STUDIO 2013\PROJECTS\YEAR2(2017)\TRIVIA PROJECT\SERVER\SERVER\SERVER\GAME.CPP|D:\USERS\USER-PC\DOCUMENTS\VISUAL STUDIO 2013\PROJECTS\YEAR2(2017)\TRIVIA PROJECT\SERVER\SERVER\SERVER\RECIEVEDMESSAGES.CPP|D:\USERS\USER-PC\DOCUMENTS\VISUAL STUDIO 2013\PROJECTS\YEAR2(2017)\TRIVIA PROJECT\SERVER\SERVER\SERVER\ROOM.CPP|D:\USERS\USER-PC\DOCUMENTS\VISUAL STUDIO 2013\PROJECTS\YEAR2(2017)\TRIVIA PROJECT\SERVER\SERVER\SERVER\SOURCE.CPP|D:\USERS\USER-PC\DOCUMENTS\VISUAL STUDIO 2013\PROJECTS\YEAR2(2017)\TRIVIA PROJECT\SERVER\SERVER\SERVER\TRIVIASERVER.CPP|D:\USERS\USER-PC\DOCUMENTS\VISUAL STUDIO 2013\PROJECTS\YEAR2(2017)\TRIVIA PROJECT\SERVER\SERVER\SERVER\USER.CPP
D:\USERS\USER-PC\DOCUMENTS\VISUAL STUDIO 2013\PROJECTS\YEAR2(2017)\TRIVIA PROJECT\SERVER\SERVER\SERVER\DEBUG\VC120.PDB
D:\USERS\USER-PC\DOCUMENTS\VISUAL STUDIO 2013\PROJECTS\YEAR2(2017)\TRIVIA PROJECT\SERVER\SERVER\SERVER\DEBUG\VC120.IDB
D:\USERS\USER-PC\DOCUMENTS\VISUAL STUDIO 2013\PROJECTS\YEAR2(2017)\TRIVIA PROJECT\SERVER\SERVER\SERVER\DEBUG\RECIEVEDMESSAGES.OBJ
D:\USERS\USER-PC\DOCUMENTS\VISUAL STUDIO 2013\PROJECTS\YEAR2(2017)\TRIVIA PROJECT\SERVER\SERVER\SERVER\DEBUG\DATABASE.OBJ
^D:\USERS\USER-PC\DOCUMENTS\VISUAL STUDIO 2013\PROJECTS\YEAR2(2017)\TRIVIA PROJECT\SERVER\SERVER\SERVER\DATABASE.CPP|D:\USERS\USER-PC\DOCUMENTS\VISUAL STUDIO 2013\PROJECTS\YEAR2(2017)\TRIVIA PROJECT\SERVER\SERVER\SERVER\GAME.CPP|D:\USERS\USER-PC\DOCUMENTS\VISUAL STUDIO 2013\PROJECTS\YEAR2(2017)\TRIVIA PROJECT\SERVER\SERVER\SERVER\ROOM.CPP|D:\USERS\USER-PC\DOCUMENTS\VISUAL STUDIO 2013\PROJECTS\YEAR2(2017)\TRIVIA PROJECT\SERVER\SERVER\SERVER\SOURCE.CPP|D:\USERS\USER-PC\DOCUMENTS\VISUAL STUDIO 2013\PROJECTS\YEAR2(2017)\TRIVIA PROJECT\SERVER\SERVER\SERVER\TRIVIASERVER.CPP|D:\USERS\USER-PC\DOCUMENTS\VISUAL STUDIO 2013\PROJECTS\YEAR2(2017)\TRIVIA PROJECT\SERVER\SERVER\SERVER\USER.CPP
D:\USERS\USER-PC\DOCUMENTS\VISUAL STUDIO 2013\PROJECTS\YEAR2(2017)\TRIVIA PROJECT\SERVER\SERVER\SERVER\DEBUG\VC120.PDB
D:\USERS\USER-PC\DOCUMENTS\VISUAL STUDIO 2013\PROJECTS\YEAR2(2017)\TRIVIA PROJECT\SERVER\SERVER\SERVER\DEBUG\VC120.IDB
D:\USERS\USER-PC\DOCUMENTS\VISUAL STUDIO 2013\PROJECTS\YEAR2(2017)\TRIVIA PROJECT\SERVER\SERVER\SERVER\DEBUG\SOURCE.OBJ
D:\USERS\USER-PC\DOCUMENTS\VISUAL STUDIO 2013\PROJECTS\YEAR2(2017)\TRIVIA PROJECT\SERVER\SERVER\SERVER\DEBUG\TRIVIASERVER.OBJ
D:\USERS\USER-PC\DOCUMENTS\VISUAL STUDIO 2013\PROJECTS\YEAR2(2017)\TRIVIA PROJECT\SERVER\SERVER\SERVER\DEBUG\USER.OBJ
^D:\USERS\USER-PC\DOCUMENTS\VISUAL STUDIO 2013\PROJECTS\YEAR2(2017)\TRIVIA PROJECT\SERVER\SERVER\SERVER\DATABASE.CPP|D:\USERS\USER-PC\DOCUMENTS\VISUAL STUDIO 2013\PROJECTS\YEAR2(2017)\TRIVIA PROJECT\SERVER\SERVER\SERVER\GAME.CPP|D:\USERS\USER-PC\DOCUMENTS\VISUAL STUDIO 2013\PROJECTS\YEAR2(2017)\TRIVIA PROJECT\SERVER\SERVER\SERVER\ROOM.CPP
D:\USERS\USER-PC\DOCUMENTS\VISUAL STUDIO 2013\PROJECTS\YEAR2(2017)\TRIVIA PROJECT\SERVER\SERVER\SERVER\DEBUG\VC120.PDB
D:\USERS\USER-PC\DOCUMENTS\VISUAL STUDIO 2013\PROJECTS\YEAR2(2017)\TRIVIA PROJECT\SERVER\SERVER\SERVER\DEBUG\VC120.IDB
D:\USERS\USER-PC\DOCUMENTS\VISUAL STUDIO 2013\PROJECTS\YEAR2(2017)\TRIVIA PROJECT\SERVER\SERVER\SERVER\DEBUG\GAME.OBJ
^D:\USERS\USER-PC\DOCUMENTS\VISUAL STUDIO 2013\PROJECTS\YEAR2(2017)\TRIVIA PROJECT\SERVER\SERVER\SERVER\DATABASE.CPP|D:\USERS\USER-PC\DOCUMENTS\VISUAL STUDIO 2013\PROJECTS\YEAR2(2017)\TRIVIA PROJECT\SERVER\SERVER\SERVER\ROOM.CPP
D:\USERS\USER-PC\DOCUMENTS\VISUAL STUDIO 2013\PROJECTS\YEAR2(2017)\TRIVIA PROJECT\SERVER\SERVER\SERVER\DEBUG\VC120.PDB
D:\USERS\USER-PC\DOCUMENTS\VISUAL STUDIO 2013\PROJECTS\YEAR2(2017)\TRIVIA PROJECT\SERVER\SERVER\SERVER\DEBUG\VC120.IDB
D:\USERS\USER-PC\DOCUMENTS\VISUAL STUDIO 2013\PROJECTS\YEAR2(2017)\TRIVIA PROJECT\SERVER\SERVER\SERVER\DEBUG\DATABASE.OBJ
D:\USERS\USER-PC\DOCUMENTS\VISUAL STUDIO 2013\PROJECTS\YEAR2(2017)\TRIVIA PROJECT\SERVER\SERVER\SERVER\DEBUG\ROOM.OBJ
^D:\USERS\USER-PC\DOCUMENTS\VISUAL STUDIO 2013\PROJECTS\YEAR2(2017)\TRIVIA PROJECT\SERVER\SERVER\SERVER\SOURCE.CPP|D:\USERS\USER-PC\DOCUMENTS\VISUAL STUDIO 2013\PROJECTS\YEAR2(2017)\TRIVIA PROJECT\SERVER\SERVER\SERVER\TRIVIASERVER.CPP
D:\USERS\USER-PC\DOCUMENTS\VISUAL STUDIO 2013\PROJECTS\YEAR2(2017)\TRIVIA PROJECT\SERVER\SERVER\SERVER\DEBUG\VC120.PDB
D:\USERS\USER-PC\DOCUMENTS\VISUAL STUDIO 2013\PROJECTS\YEAR2(2017)\TRIVIA PROJECT\SERVER\SERVER\SERVER\DEBUG\VC120.IDB
D:\USERS\USER-PC\DOCUMENTS\VISUAL STUDIO 2013\PROJECTS\YEAR2(2017)\TRIVIA PROJECT\SERVER\SERVER\SERVER\DEBUG\SOURCE.OBJ
D:\USERS\USER-PC\DOCUMENTS\VISUAL STUDIO 2013\PROJECTS\YEAR2(2017)\TRIVIA PROJECT\SERVER\SERVER\SERVER\DEBUG\TRIVIASERVER.OBJ
^D:\USERS\USER-PC\DOCUMENTS\VISUAL STUDIO 2013\PROJECTS\YEAR2(2017)\TRIVIA PROJECT\SERVER\SERVER\SERVER\DATABASE.CPP|D:\USERS\USER-PC\DOCUMENTS\VISUAL STUDIO 2013\PROJECTS\YEAR2(2017)\TRIVIA PROJECT\SERVER\SERVER\SERVER\TRIVIASERVER.CPP
D:\USERS\USER-PC\DOCUMENTS\VISUAL STUDIO 2013\PROJECTS\YEAR2(2017)\TRIVIA PROJECT\SERVER\SERVER\SERVER\DEBUG\VC120.PDB
D:\USERS\USER-PC\DOCUMENTS\VISUAL STUDIO 2013\PROJECTS\YEAR2(2017)\TRIVIA PROJECT\SERVER\SERVER\SERVER\DEBUG\VC120.IDB
D:\USERS\USER-PC\DOCUMENTS\VISUAL STUDIO 2013\PROJECTS\YEAR2(2017)\TRIVIA PROJECT\SERVER\SERVER\SERVER\DEBUG\DATABASE.OBJ
D:\USERS\USER-PC\DOCUMENTS\VISUAL STUDIO 2013\PROJECTS\YEAR2(2017)\TRIVIA PROJECT\SERVER\SERVER\SERVER\DEBUG\TRIVIASERVER.OBJ
^D:\USERS\USER-PC\DOCUMENTS\VISUAL STUDIO 2013\PROJECTS\YEAR2(2017)\TRIVIA PROJECT\SERVER\SERVER\SERVER\HELPER.CPP|D:\USERS\USER-PC\DOCUMENTS\VISUAL STUDIO 2013\PROJECTS\YEAR2(2017)\TRIVIA PROJECT\SERVER\SERVER\SERVER\TRIVIASERVER.CPP
D:\USERS\USER-PC\DOCUMENTS\VISUAL STUDIO 2013\PROJECTS\YEAR2(2017)\TRIVIA PROJECT\SERVER\SERVER\SERVER\DEBUG\VC120.PDB
D:\USERS\USER-PC\DOCUMENTS\VISUAL STUDIO 2013\PROJECTS\YEAR2(2017)\TRIVIA PROJECT\SERVER\SERVER\SERVER\DEBUG\VC120.IDB
D:\USERS\USER-PC\DOCUMENTS\VISUAL STUDIO 2013\PROJECTS\YEAR2(2017)\TRIVIA PROJECT\SERVER\SERVER\SERVER\DEBUG\HELPER.OBJ
D:\USERS\USER-PC\DOCUMENTS\VISUAL STUDIO 2013\PROJECTS\YEAR2(2017)\TRIVIA PROJECT\SERVER\SERVER\SERVER\DEBUG\TRIVIASERVER.OBJ
^D:\USERS\USER-PC\DOCUMENTS\VISUAL STUDIO 2013\PROJECTS\YEAR2(2017)\TRIVIA PROJECT\SERVER\SERVER\SERVER\SOURCE.CPP|D:\USERS\USER-PC\DOCUMENTS\VISUAL STUDIO 2013\PROJECTS\YEAR2(2017)\TRIVIA PROJECT\SERVER\SERVER\SERVER\TRIVIASERVER.CPP|D:\USERS\USER-PC\DOCUMENTS\VISUAL STUDIO 2013\PROJECTS\YEAR2(2017)\TRIVIA PROJECT\SERVER\SERVER\SERVER\VALIDATOR.CPP
D:\USERS\USER-PC\DOCUMENTS\VISUAL STUDIO 2013\PROJECTS\YEAR2(2017)\TRIVIA PROJECT\SERVER\SERVER\SERVER\DEBUG\VC120.PDB
D:\USERS\USER-PC\DOCUMENTS\VISUAL STUDIO 2013\PROJECTS\YEAR2(2017)\TRIVIA PROJECT\SERVER\SERVER\SERVER\DEBUG\VC120.IDB
D:\USERS\USER-PC\DOCUMENTS\VISUAL STUDIO 2013\PROJECTS\YEAR2(2017)\TRIVIA PROJECT\SERVER\SERVER\SERVER\DEBUG\TRIVIASERVER.OBJ
D:\USERS\USER-PC\DOCUMENTS\VISUAL STUDIO 2013\PROJECTS\YEAR2(2017)\TRIVIA PROJECT\SERVER\SERVER\SERVER\DEBUG\SOURCE.OBJ
^D:\USERS\USER-PC\DOCUMENTS\VISUAL STUDIO 2013\PROJECTS\YEAR2(2017)\TRIVIA PROJECT\SERVER\SERVER\SERVER\VALIDATOR.CPP
D:\USERS\USER-PC\DOCUMENTS\VISUAL STUDIO 2013\PROJECTS\YEAR2(2017)\TRIVIA PROJECT\SERVER\SERVER\SERVER\DEBUG\VC120.PDB
D:\USERS\USER-PC\DOCUMENTS\VISUAL STUDIO 2013\PROJECTS\YEAR2(2017)\TRIVIA PROJECT\SERVER\SERVER\SERVER\DEBUG\VC120.IDB
D:\USERS\USER-PC\DOCUMENTS\VISUAL STUDIO 2013\PROJECTS\YEAR2(2017)\TRIVIA PROJECT\SERVER\SERVER\SERVER\DEBUG\VALIDATOR.OBJ
^D:\USERS\USER-PC\DOCUMENTS\VISUAL STUDIO 2013\PROJECTS\YEAR2(2017)\TRIVIA PROJECT\SERVER\SERVER\SERVER\GAME.CPP|D:\USERS\USER-PC\DOCUMENTS\VISUAL STUDIO 2013\PROJECTS\YEAR2(2017)\TRIVIA PROJECT\SERVER\SERVER\SERVER\RECIEVEDMESSAGES.CPP|D:\USERS\USER-PC\DOCUMENTS\VISUAL STUDIO 2013\PROJECTS\YEAR2(2017)\TRIVIA PROJECT\SERVER\SERVER\SERVER\ROOM.CPP|D:\USERS\USER-PC\DOCUMENTS\VISUAL STUDIO 2013\PROJECTS\YEAR2(2017)\TRIVIA PROJECT\SERVER\SERVER\SERVER\SOURCE.CPP|D:\USERS\USER-PC\DOCUMENTS\VISUAL STUDIO 2013\PROJECTS\YEAR2(2017)\TRIVIA PROJECT\SERVER\SERVER\SERVER\TRIVIASERVER.CPP|D:\USERS\USER-PC\DOCUMENTS\VISUAL STUDIO 2013\PROJECTS\YEAR2(2017)\TRIVIA PROJECT\SERVER\SERVER\SERVER\USER.CPP
D:\USERS\USER-PC\DOCUMENTS\VISUAL STUDIO 2013\PROJECTS\YEAR2(2017)\TRIVIA PROJECT\SERVER\SERVER\SERVER\DEBUG\VC120.PDB
D:\USERS\USER-PC\DOCUMENTS\VISUAL STUDIO 2013\PROJECTS\YEAR2(2017)\TRIVIA PROJECT\SERVER\SERVER\SERVER\DEBUG\VC120.IDB
D:\USERS\USER-PC\DOCUMENTS\VISUAL STUDIO 2013\PROJECTS\YEAR2(2017)\TRIVIA PROJECT\SERVER\SERVER\SERVER\DEBUG\ROOM.OBJ
D:\USERS\USER-PC\DOCUMENTS\VISUAL STUDIO 2013\PROJECTS\YEAR2(2017)\TRIVIA PROJECT\SERVER\SERVER\SERVER\DEBUG\TRIVIASERVER.OBJ
D:\USERS\USER-PC\DOCUMENTS\VISUAL STUDIO 2013\PROJECTS\YEAR2(2017)\TRIVIA PROJECT\SERVER\SERVER\SERVER\DEBUG\SOURCE.OBJ
D:\USERS\USER-PC\DOCUMENTS\VISUAL STUDIO 2013\PROJECTS\YEAR2(2017)\TRIVIA PROJECT\SERVER\SERVER\SERVER\DEBUG\GAME.OBJ
D:\USERS\USER-PC\DOCUMENTS\VISUAL STUDIO 2013\PROJECTS\YEAR2(2017)\TRIVIA PROJECT\SERVER\SERVER\SERVER\DEBUG\USER.OBJ
^D:\USERS\USER-PC\DOCUMENTS\VISUAL STUDIO 2013\PROJECTS\YEAR2(2017)\TRIVIA PROJECT\SERVER\SERVER\SERVER\GAME.CPP|D:\USERS\USER-PC\DOCUMENTS\VISUAL STUDIO 2013\PROJECTS\YEAR2(2017)\TRIVIA PROJECT\SERVER\SERVER\SERVER\HELPER.CPP|D:\USERS\USER-PC\DOCUMENTS\VISUAL STUDIO 2013\PROJECTS\YEAR2(2017)\TRIVIA PROJECT\SERVER\SERVER\SERVER\RECIEVEDMESSAGES.CPP|D:\USERS\USER-PC\DOCUMENTS\VISUAL STUDIO 2013\PROJECTS\YEAR2(2017)\TRIVIA PROJECT\SERVER\SERVER\SERVER\ROOM.CPP|D:\USERS\USER-PC\DOCUMENTS\VISUAL STUDIO 2013\PROJECTS\YEAR2(2017)\TRIVIA PROJECT\SERVER\SERVER\SERVER\SOURCE.CPP|D:\USERS\USER-PC\DOCUMENTS\VISUAL STUDIO 2013\PROJECTS\YEAR2(2017)\TRIVIA PROJECT\SERVER\SERVER\SERVER\TRIVIASERVER.CPP|D:\USERS\USER-PC\DOCUMENTS\VISUAL STUDIO 2013\PROJECTS\YEAR2(2017)\TRIVIA PROJECT\SERVER\SERVER\SERVER\USER.CPP
D:\USERS\USER-PC\DOCUMENTS\VISUAL STUDIO 2013\PROJECTS\YEAR2(2017)\TRIVIA PROJECT\SERVER\SERVER\SERVER\DEBUG\VC120.PDB
D:\USERS\USER-PC\DOCUMENTS\VISUAL STUDIO 2013\PROJECTS\YEAR2(2017)\TRIVIA PROJECT\SERVER\SERVER\SERVER\DEBUG\VC120.IDB
^D:\USERS\USER-PC\DOCUMENTS\VISUAL STUDIO 2013\PROJECTS\YEAR2(2017)\TRIVIA PROJECT\SERVER\SERVER\SERVER\GAME.CPP|D:\USERS\USER-PC\DOCUMENTS\VISUAL STUDIO 2013\PROJECTS\YEAR2(2017)\TRIVIA PROJECT\SERVER\SERVER\SERVER\HELPER.CPP|D:\USERS\USER-PC\DOCUMENTS\VISUAL STUDIO 2013\PROJECTS\YEAR2(2017)\TRIVIA PROJECT\SERVER\SERVER\SERVER\RECIEVEDMESSAGES.CPP|D:\USERS\USER-PC\DOCUMENTS\VISUAL STUDIO 2013\PROJECTS\YEAR2(2017)\TRIVIA PROJECT\SERVER\SERVER\SERVER\ROOM.CPP|D:\USERS\USER-PC\DOCUMENTS\VISUAL STUDIO 2013\PROJECTS\YEAR2(2017)\TRIVIA PROJECT\SERVER\SERVER\SERVER\SOURCE.CPP|D:\USERS\USER-PC\DOCUMENTS\VISUAL STUDIO 2013\PROJECTS\YEAR2(2017)\TRIVIA PROJECT\SERVER\SERVER\SERVER\TRIVIASERVER.CPP|D:\USERS\USER-PC\DOCUMENTS\VISUAL STUDIO 2013\PROJECTS\YEAR2(2017)\TRIVIA PROJECT\SERVER\SERVER\SERVER\USER.CPP|D:\USERS\USER-PC\DOCUMENTS\VISUAL STUDIO 2013\PROJECTS\YEAR2(2017)\TRIVIA PROJECT\SERVER\SERVER\SERVER\VALIDATOR.CPP
D:\USERS\USER-PC\DOCUMENTS\VISUAL STUDIO 2013\PROJECTS\YEAR2(2017)\TRIVIA PROJECT\SERVER\SERVER\SERVER\DEBUG\VC120.PDB
D:\USERS\USER-PC\DOCUMENTS\VISUAL STUDIO 2013\PROJECTS\YEAR2(2017)\TRIVIA PROJECT\SERVER\SERVER\SERVER\DEBUG\VC120.IDB
D:\USERS\USER-PC\DOCUMENTS\VISUAL STUDIO 2013\PROJECTS\YEAR2(2017)\TRIVIA PROJECT\SERVER\SERVER\SERVER\DEBUG\GAME.OBJ
D:\USERS\USER-PC\DOCUMENTS\VISUAL STUDIO 2013\PROJECTS\YEAR2(2017)\TRIVIA PROJECT\SERVER\SERVER\SERVER\DEBUG\HELPER.OBJ
D:\USERS\USER-PC\DOCUMENTS\VISUAL STUDIO 2013\PROJECTS\YEAR2(2017)\TRIVIA PROJECT\SERVER\SERVER\SERVER\DEBUG\RECIEVEDMESSAGES.OBJ
D:\USERS\USER-PC\DOCUMENTS\VISUAL STUDIO 2013\PROJECTS\YEAR2(2017)\TRIVIA PROJECT\SERVER\SERVER\SERVER\DEBUG\ROOM.OBJ
D:\USERS\USER-PC\DOCUMENTS\VISUAL STUDIO 2013\PROJECTS\YEAR2(2017)\TRIVIA PROJECT\SERVER\SERVER\SERVER\DEBUG\SOURCE.OBJ
D:\USERS\USER-PC\DOCUMENTS\VISUAL STUDIO 2013\PROJECTS\YEAR2(2017)\TRIVIA PROJECT\SERVER\SERVER\SERVER\DEBUG\TRIVIASERVER.OBJ
D:\USERS\USER-PC\DOCUMENTS\VISUAL STUDIO 2013\PROJECTS\YEAR2(2017)\TRIVIA PROJECT\SERVER\SERVER\SERVER\DEBUG\USER.OBJ
D:\USERS\USER-PC\DOCUMENTS\VISUAL STUDIO 2013\PROJECTS\YEAR2(2017)\TRIVIA PROJECT\SERVER\SERVER\SERVER\DEBUG\VALIDATOR.OBJ
^D:\USERS\USER-PC\DOCUMENTS\VISUAL STUDIO 2013\PROJECTS\YEAR2(2017)\TRIVIA PROJECT\SERVER\SERVER\SERVER\TRIVIASERVER.CPP|D:\USERS\USER-PC\DOCUMENTS\VISUAL STUDIO 2013\PROJECTS\YEAR2(2017)\TRIVIA PROJECT\SERVER\SERVER\SERVER\USER.CPP
D:\USERS\USER-PC\DOCUMENTS\VISUAL STUDIO 2013\PROJECTS\YEAR2(2017)\TRIVIA PROJECT\SERVER\SERVER\SERVER\DEBUG\VC120.PDB
D:\USERS\USER-PC\DOCUMENTS\VISUAL STUDIO 2013\PROJECTS\YEAR2(2017)\TRIVIA PROJECT\SERVER\SERVER\SERVER\DEBUG\VC120.IDB
D:\USERS\USER-PC\DOCUMENTS\VISUAL STUDIO 2013\PROJECTS\YEAR2(2017)\TRIVIA PROJECT\SERVER\SERVER\SERVER\DEBUG\TRIVIASERVER.OBJ
D:\USERS\USER-PC\DOCUMENTS\VISUAL STUDIO 2013\PROJECTS\YEAR2(2017)\TRIVIA PROJECT\SERVER\SERVER\SERVER\DEBUG\USER.OBJ
^D:\USERS\USER-PC\DOCUMENTS\VISUAL STUDIO 2013\PROJECTS\YEAR2(2017)\TRIVIA PROJECT\SERVER\SERVER\SERVER\ROOM.CPP|D:\USERS\USER-PC\DOCUMENTS\VISUAL STUDIO 2013\PROJECTS\YEAR2(2017)\TRIVIA PROJECT\SERVER\SERVER\SERVER\TRIVIASERVER.CPP
D:\USERS\USER-PC\DOCUMENTS\VISUAL STUDIO 2013\PROJECTS\YEAR2(2017)\TRIVIA PROJECT\SERVER\SERVER\SERVER\DEBUG\VC120.PDB
D:\USERS\USER-PC\DOCUMENTS\VISUAL STUDIO 2013\PROJECTS\YEAR2(2017)\TRIVIA PROJECT\SERVER\SERVER\SERVER\DEBUG\VC120.IDB
D:\USERS\USER-PC\DOCUMENTS\VISUAL STUDIO 2013\PROJECTS\YEAR2(2017)\TRIVIA PROJECT\SERVER\SERVER\SERVER\DEBUG\ROOM.OBJ
D:\USERS\USER-PC\DOCUMENTS\VISUAL STUDIO 2013\PROJECTS\YEAR2(2017)\TRIVIA PROJECT\SERVER\SERVER\SERVER\DEBUG\TRIVIASERVER.OBJ
^D:\USERS\USER-PC\DOCUMENTS\VISUAL STUDIO 2013\PROJECTS\YEAR2(2017)\TRIVIA PROJECT\SERVER\HW21_DANIELDAVIDOV_TRIVIA_V1\TRIVIAPROJECTDANIELANDITAY_V1\SERVER\DATABASE.CPP|D:\USERS\USER-PC\DOCUMENTS\VISUAL STUDIO 2013\PROJECTS\YEAR2(2017)\TRIVIA PROJECT\SERVER\HW21_DANIELDAVIDOV_TRIVIA_V1\TRIVIAPROJECTDANIELANDITAY_V1\SERVER\GAME.CPP|D:\USERS\USER-PC\DOCUMENTS\VISUAL STUDIO 2013\PROJECTS\YEAR2(2017)\TRIVIA PROJECT\SERVER\HW21_DANIELDAVIDOV_TRIVIA_V1\TRIVIAPROJECTDANIELANDITAY_V1\SERVER\HELPER.CPP|D:\USERS\USER-PC\DOCUMENTS\VISUAL STUDIO 2013\PROJECTS\YEAR2(2017)\TRIVIA PROJECT\SERVER\HW21_DANIELDAVIDOV_TRIVIA_V1\TRIVIAPROJECTDANIELANDITAY_V1\SERVER\QUESTION.CPP|D:\USERS\USER-PC\DOCUMENTS\VISUAL STUDIO 2013\PROJECTS\YEAR2(2017)\TRIVIA PROJECT\SERVER\HW21_DANIELDAVIDOV_TRIVIA_V1\TRIVIAPROJECTDANIELANDITAY_V1\SERVER\RECIEVEDMESSAGES.CPP|D:\USERS\USER-PC\DOCUMENTS\VISUAL STUDIO 2013\PROJECTS\YEAR2(2017)\TRIVIA PROJECT\SERVER\HW21_DANIELDAVIDOV_TRIVIA_V1\TRIVIAPROJECTDANIELANDITAY_V1\SERVER\ROOM.CPP|D:\USERS\USER-PC\DOCUMENTS\VISUAL STUDIO 2013\PROJECTS\YEAR2(2017)\TRIVIA PROJECT\SERVER\HW21_DANIELDAVIDOV_TRIVIA_V1\TRIVIAPROJECTDANIELANDITAY_V1\SERVER\SOURCE.CPP|D:\USERS\USER-PC\DOCUMENTS\VISUAL STUDIO 2013\PROJECTS\YEAR2(2017)\TRIVIA PROJECT\SERVER\HW21_DANIELDAVIDOV_TRIVIA_V1\TRIVIAPROJECTDANIELANDITAY_V1\SERVER\TRIVIASERVER.CPP|D:\USERS\USER-PC\DOCUMENTS\VISUAL STUDIO 2013\PROJECTS\YEAR2(2017)\TRIVIA PROJECT\SERVER\HW21_DANIELDAVIDOV_TRIVIA_V1\TRIVIAPROJECTDANIELANDITAY_V1\SERVER\USER.CPP|D:\USERS\USER-PC\DOCUMENTS\VISUAL STUDIO 2013\PROJECTS\YEAR2(2017)\TRIVIA PROJECT\SERVER\HW21_DANIELDAVIDOV_TRIVIA_V1\TRIVIAPROJECTDANIELANDITAY_V1\SERVER\VALIDATOR.CPP|D:\USERS\USER-PC\DOCUMENTS\VISUAL STUDIO 2013\PROJECTS\YEAR2(2017)\TRIVIA PROJECT\SERVER\HW21_DANIELDAVIDOV_TRIVIA_V1\TRIVIAPROJECTDANIELANDITAY_V1\SERVER\WSAINITIALIZER.CPP
D:\USERS\USER-PC\DOCUMENTS\VISUAL STUDIO 2013\PROJECTS\YEAR2(2017)\TRIVIA PROJECT\SERVER\HW21_DANIELDAVIDOV_TRIVIA_V1\TRIVIAPROJECTDANIELANDITAY_V1\SERVER\DEBUG\VC120.PDB
D:\USERS\USER-PC\DOCUMENTS\VISUAL STUDIO 2013\PROJECTS\YEAR2(2017)\TRIVIA PROJECT\SERVER\HW21_DANIELDAVIDOV_TRIVIA_V1\TRIVIAPROJECTDANIELANDITAY_V1\SERVER\DEBUG\VC120.IDB
D:\USERS\USER-PC\DOCUMENTS\VISUAL STUDIO 2013\PROJECTS\YEAR2(2017)\TRIVIA PROJECT\SERVER\HW21_DANIELDAVIDOV_TRIVIA_V1\TRIVIAPROJECTDANIELANDITAY_V1\SERVER\DEBUG\DATABASE.OBJ
D:\USERS\USER-PC\DOCUMENTS\VISUAL STUDIO 2013\PROJECTS\YEAR2(2017)\TRIVIA PROJECT\SERVER\HW21_DANIELDAVIDOV_TRIVIA_V1\TRIVIAPROJECTDANIELANDITAY_V1\SERVER\DEBUG\GAME.OBJ
D:\USERS\USER-PC\DOCUMENTS\VISUAL STUDIO 2013\PROJECTS\YEAR2(2017)\TRIVIA PROJECT\SERVER\HW21_DANIELDAVIDOV_TRIVIA_V1\TRIVIAPROJECTDANIELANDITAY_V1\SERVER\DEBUG\HELPER.OBJ
D:\USERS\USER-PC\DOCUMENTS\VISUAL STUDIO 2013\PROJECTS\YEAR2(2017)\TRIVIA PROJECT\SERVER\HW21_DANIELDAVIDOV_TRIVIA_V1\TRIVIAPROJECTDANIELANDITAY_V1\SERVER\DEBUG\QUESTION.OBJ
D:\USERS\USER-PC\DOCUMENTS\VISUAL STUDIO 2013\PROJECTS\YEAR2(2017)\TRIVIA PROJECT\SERVER\HW21_DANIELDAVIDOV_TRIVIA_V1\TRIVIAPROJECTDANIELANDITAY_V1\SERVER\DEBUG\RECIEVEDMESSAGES.OBJ
D:\USERS\USER-PC\DOCUMENTS\VISUAL STUDIO 2013\PROJECTS\YEAR2(2017)\TRIVIA PROJECT\SERVER\HW21_DANIELDAVIDOV_TRIVIA_V1\TRIVIAPROJECTDANIELANDITAY_V1\SERVER\DEBUG\ROOM.OBJ
D:\USERS\USER-PC\DOCUMENTS\VISUAL STUDIO 2013\PROJECTS\YEAR2(2017)\TRIVIA PROJECT\SERVER\HW21_DANIELDAVIDOV_TRIVIA_V1\TRIVIAPROJECTDANIELANDITAY_V1\SERVER\DEBUG\SOURCE.OBJ
D:\USERS\USER-PC\DOCUMENTS\VISUAL STUDIO 2013\PROJECTS\YEAR2(2017)\TRIVIA PROJECT\SERVER\HW21_DANIELDAVIDOV_TRIVIA_V1\TRIVIAPROJECTDANIELANDITAY_V1\SERVER\DEBUG\TRIVIASERVER.OBJ
D:\USERS\USER-PC\DOCUMENTS\VISUAL STUDIO 2013\PROJECTS\YEAR2(2017)\TRIVIA PROJECT\SERVER\HW21_DANIELDAVIDOV_TRIVIA_V1\TRIVIAPROJECTDANIELANDITAY_V1\SERVER\DEBUG\USER.OBJ
D:\USERS\USER-PC\DOCUMENTS\VISUAL STUDIO 2013\PROJECTS\YEAR2(2017)\TRIVIA PROJECT\SERVER\HW21_DANIELDAVIDOV_TRIVIA_V1\TRIVIAPROJECTDANIELANDITAY_V1\SERVER\DEBUG\VALIDATOR.OBJ
D:\USERS\USER-PC\DOCUMENTS\VISUAL STUDIO 2013\PROJECTS\YEAR2(2017)\TRIVIA PROJECT\SERVER\HW21_DANIELDAVIDOV_TRIVIA_V1\TRIVIAPROJECTDANIELANDITAY_V1\SERVER\DEBUG\WSAINITIALIZER.OBJ
^D:\USERS\USER-PC\DOCUMENTS\VISUAL STUDIO 2013\PROJECTS\YEAR2(2017)\TRIVIA PROJECT\SERVER\HW21_DANIELDAVIDOV_TRIVIA_V1\TRIVIAPROJECTDANIELANDITAY_V1\SERVER\DATABASE.CPP
D:\USERS\USER-PC\DOCUMENTS\VISUAL STUDIO 2013\PROJECTS\YEAR2(2017)\TRIVIA PROJECT\SERVER\HW21_DANIELDAVIDOV_TRIVIA_V1\TRIVIAPROJECTDANIELANDITAY_V1\SERVER\DEBUG\VC120.PDB
^D:\USERS\USER-PC\DOCUMENTS\VISUAL STUDIO 2013\PROJECTS\YEAR2(2017)\TRIVIA PROJECT\SERVER\HW21_DANIELDAVIDOV_TRIVIA_V1\TRIVIAPROJECTDANIELANDITAY_V1\SERVER\GAME.CPP
D:\USERS\USER-PC\DOCUMENTS\VISUAL STUDIO 2013\PROJECTS\YEAR2(2017)\TRIVIA PROJECT\SERVER\HW21_DANIELDAVIDOV_TRIVIA_V1\TRIVIAPROJECTDANIELANDITAY_V1\SERVER\DEBUG\VC120.PDB
^D:\USERS\USER-PC\DOCUMENTS\VISUAL STUDIO 2013\PROJECTS\YEAR2(2017)\TRIVIA PROJECT\SERVER\HW21_DANIELDAVIDOV_TRIVIA_V1\TRIVIAPROJECTDANIELANDITAY_V1\SERVER\HELPER.CPP
D:\USERS\USER-PC\DOCUMENTS\VISUAL STUDIO 2013\PROJECTS\YEAR2(2017)\TRIVIA PROJECT\SERVER\HW21_DANIELDAVIDOV_TRIVIA_V1\TRIVIAPROJECTDANIELANDITAY_V1\SERVER\DEBUG\VC120.PDB
^D:\USERS\USER-PC\DOCUMENTS\VISUAL STUDIO 2013\PROJECTS\YEAR2(2017)\TRIVIA PROJECT\SERVER\HW21_DANIELDAVIDOV_TRIVIA_V1\TRIVIAPROJECTDANIELANDITAY_V1\SERVER\QUESTION.CPP
D:\USERS\USER-PC\DOCUMENTS\VISUAL STUDIO 2013\PROJECTS\YEAR2(2017)\TRIVIA PROJECT\SERVER\HW21_DANIELDAVIDOV_TRIVIA_V1\TRIVIAPROJECTDANIELANDITAY_V1\SERVER\DEBUG\VC120.PDB
^D:\USERS\USER-PC\DOCUMENTS\VISUAL STUDIO 2013\PROJECTS\YEAR2(2017)\TRIVIA PROJECT\SERVER\HW21_DANIELDAVIDOV_TRIVIA_V1\TRIVIAPROJECTDANIELANDITAY_V1\SERVER\RECIEVEDMESSAGES.CPP
D:\USERS\USER-PC\DOCUMENTS\VISUAL STUDIO 2013\PROJECTS\YEAR2(2017)\TRIVIA PROJECT\SERVER\HW21_DANIELDAVIDOV_TRIVIA_V1\TRIVIAPROJECTDANIELANDITAY_V1\SERVER\DEBUG\VC120.PDB
^D:\USERS\USER-PC\DOCUMENTS\VISUAL STUDIO 2013\PROJECTS\YEAR2(2017)\TRIVIA PROJECT\SERVER\HW21_DANIELDAVIDOV_TRIVIA_V1\TRIVIAPROJECTDANIELANDITAY_V1\SERVER\ROOM.CPP
D:\USERS\USER-PC\DOCUMENTS\VISUAL STUDIO 2013\PROJECTS\YEAR2(2017)\TRIVIA PROJECT\SERVER\HW21_DANIELDAVIDOV_TRIVIA_V1\TRIVIAPROJECTDANIELANDITAY_V1\SERVER\DEBUG\VC120.PDB
^D:\USERS\USER-PC\DOCUMENTS\VISUAL STUDIO 2013\PROJECTS\YEAR2(2017)\TRIVIA PROJECT\SERVER\HW21_DANIELDAVIDOV_TRIVIA_V1\TRIVIAPROJECTDANIELANDITAY_V1\SERVER\SOURCE.CPP
D:\USERS\USER-PC\DOCUMENTS\VISUAL STUDIO 2013\PROJECTS\YEAR2(2017)\TRIVIA PROJECT\SERVER\HW21_DANIELDAVIDOV_TRIVIA_V1\TRIVIAPROJECTDANIELANDITAY_V1\SERVER\DEBUG\VC120.PDB
^D:\USERS\USER-PC\DOCUMENTS\VISUAL STUDIO 2013\PROJECTS\YEAR2(2017)\TRIVIA PROJECT\SERVER\HW21_DANIELDAVIDOV_TRIVIA_V1\TRIVIAPROJECTDANIELANDITAY_V1\SERVER\TRIVIASERVER.CPP
D:\USERS\USER-PC\DOCUMENTS\VISUAL STUDIO 2013\PROJECTS\YEAR2(2017)\TRIVIA PROJECT\SERVER\HW21_DANIELDAVIDOV_TRIVIA_V1\TRIVIAPROJECTDANIELANDITAY_V1\SERVER\DEBUG\VC120.PDB
^D:\USERS\USER-PC\DOCUMENTS\VISUAL STUDIO 2013\PROJECTS\YEAR2(2017)\TRIVIA PROJECT\SERVER\HW21_DANIELDAVIDOV_TRIVIA_V1\TRIVIAPROJECTDANIELANDITAY_V1\SERVER\USER.CPP
D:\USERS\USER-PC\DOCUMENTS\VISUAL STUDIO 2013\PROJECTS\YEAR2(2017)\TRIVIA PROJECT\SERVER\HW21_DANIELDAVIDOV_TRIVIA_V1\TRIVIAPROJECTDANIELANDITAY_V1\SERVER\DEBUG\VC120.PDB
^D:\USERS\USER-PC\DOCUMENTS\VISUAL STUDIO 2013\PROJECTS\YEAR2(2017)\TRIVIA PROJECT\SERVER\HW21_DANIELDAVIDOV_TRIVIA_V1\TRIVIAPROJECTDANIELANDITAY_V1\SERVER\VALIDATOR.CPP
D:\USERS\USER-PC\DOCUMENTS\VISUAL STUDIO 2013\PROJECTS\YEAR2(2017)\TRIVIA PROJECT\SERVER\HW21_DANIELDAVIDOV_TRIVIA_V1\TRIVIAPROJECTDANIELANDITAY_V1\SERVER\DEBUG\VC120.PDB
^D:\USERS\USER-PC\DOCUMENTS\VISUAL STUDIO 2013\PROJECTS\YEAR2(2017)\TRIVIA PROJECT\SERVER\HW21_DANIELDAVIDOV_TRIVIA_V1\TRIVIAPROJECTDANIELANDITAY_V1\SERVER\WSAINITIALIZER.CPP
D:\USERS\USER-PC\DOCUMENTS\VISUAL STUDIO 2013\PROJECTS\YEAR2(2017)\TRIVIA PROJECT\SERVER\HW21_DANIELDAVIDOV_TRIVIA_V1\TRIVIAPROJECTDANIELANDITAY_V1\SERVER\DEBUG\VC120.PDB
^D:\USERS\USER-PC\DOCUMENTS\VISUAL STUDIO 2013\PROJECTS\YEAR2(2017)\TRIVIA PROJECT\SERVER\HW21_DANIELDAVIDOV_TRIVIA_V1\TRIVIAPROJECTDANIELANDITAY_V1\SERVER\SQLITE3.C
D:\USERS\USER-PC\DOCUMENTS\VISUAL STUDIO 2013\PROJECTS\YEAR2(2017)\TRIVIA PROJECT\SERVER\HW21_DANIELDAVIDOV_TRIVIA_V1\TRIVIAPROJECTDANIELANDITAY_V1\SERVER\DEBUG\VC120.PDB
D:\USERS\USER-PC\DOCUMENTS\VISUAL STUDIO 2013\PROJECTS\YEAR2(2017)\TRIVIA PROJECT\SERVER\HW21_DANIELDAVIDOV_TRIVIA_V1\TRIVIAPROJECTDANIELANDITAY_V1\SERVER\DEBUG\VC120.IDB
D:\USERS\USER-PC\DOCUMENTS\VISUAL STUDIO 2013\PROJECTS\YEAR2(2017)\TRIVIA PROJECT\SERVER\HW21_DANIELDAVIDOV_TRIVIA_V1\TRIVIAPROJECTDANIELANDITAY_V1\SERVER\DEBUG\SQLITE3.OBJ
