^D:\USERS\USER-PC\DOCUMENTS\VISUAL STUDIO 2013\PROJECTS\YEAR2(2017)\TRIVIA PROJECT\SERVER\SERVER\SERVER\DEBUG\DATABASE.OBJ|D:\USERS\USER-PC\DOCUMENTS\VISUAL STUDIO 2013\PROJECTS\YEAR2(2017)\TRIVIA PROJECT\SERVER\SERVER\SERVER\DEBUG\GAME.OBJ|D:\USERS\USER-PC\DOCUMENTS\VISUAL STUDIO 2013\PROJECTS\YEAR2(2017)\TRIVIA PROJECT\SERVER\SERVER\SERVER\DEBUG\HELPER.OBJ|D:\USERS\USER-PC\DOCUMENTS\VISUAL STUDIO 2013\PROJECTS\YEAR2(2017)\TRIVIA PROJECT\SERVER\SERVER\SERVER\DEBUG\QUESTION.OBJ|D:\USERS\USER-PC\DOCUMENTS\VISUAL STUDIO 2013\PROJECTS\YEAR2(2017)\TRIVIA PROJECT\SERVER\SERVER\SERVER\DEBUG\RECIEVEDMESSAGES.OBJ|D:\USERS\USER-PC\DOCUMENTS\VISUAL STUDIO 2013\PROJECTS\YEAR2(2017)\TRIVIA PROJECT\SERVER\SERVER\SERVER\DEBUG\ROOM.OBJ|D:\USERS\USER-PC\DOCUMENTS\VISUAL STUDIO 2013\PROJECTS\YEAR2(2017)\TRIVIA PROJECT\SERVER\SERVER\SERVER\DEBUG\SOURCE.OBJ|D:\USERS\USER-PC\DOCUMENTS\VISUAL STUDIO 2013\PROJECTS\YEAR2(2017)\TRIVIA PROJECT\SERVER\SERVER\SERVER\DEBUG\SQLITE3.OBJ|D:\USERS\USER-PC\DOCUMENTS\VISUAL STUDIO 2013\PROJECTS\YEAR2(2017)\TRIVIA PROJECT\SERVER\SERVER\SERVER\DEBUG\TRIVIASERVER.OBJ|D:\USERS\USER-PC\DOCUMENTS\VISUAL STUDIO 2013\PROJECTS\YEAR2(2017)\TRIVIA PROJECT\SERVER\SERVER\SERVER\DEBUG\USER.OBJ|D:\USERS\USER-PC\DOCUMENTS\VISUAL STUDIO 2013\PROJECTS\YEAR2(2017)\TRIVIA PROJECT\SERVER\SERVER\SERVER\DEBUG\VALIDATOR.OBJ|D:\USERS\USER-PC\DOCUMENTS\VISUAL STUDIO 2013\PROJECTS\YEAR2(2017)\TRIVIA PROJECT\SERVER\SERVER\SERVER\DEBUG\WSAINITIALIZER.OBJ
D:\USERS\USER-PC\DOCUMENTS\VISUAL STUDIO 2013\PROJECTS\YEAR2(2017)\TRIVIA PROJECT\SERVER\SERVER\DEBUG\SERVER.ILK
D:\USERS\USER-PC\DOCUMENTS\VISUAL STUDIO 2013\PROJECTS\YEAR2(2017)\TRIVIA PROJECT\SERVER\SERVER\DEBUG\SERVER.EXE
D:\USERS\USER-PC\DOCUMENTS\VISUAL STUDIO 2013\PROJECTS\YEAR2(2017)\TRIVIA PROJECT\SERVER\SERVER\DEBUG\SERVER.PDB
^D:\USERS\USER-PC\DOCUMENTS\VISUAL STUDIO 2013\PROJECTS\YEAR2(2017)\TRIVIA PROJECT\SERVER\HW21_DANIELDAVIDOV_TRIVIA_V1\TRIVIAPROJECTDANIELANDITAY_V1\SERVER\DEBUG\DATABASE.OBJ|D:\USERS\USER-PC\DOCUMENTS\VISUAL STUDIO 2013\PROJECTS\YEAR2(2017)\TRIVIA PROJECT\SERVER\HW21_DANIELDAVIDOV_TRIVIA_V1\TRIVIAPROJECTDANIELANDITAY_V1\SERVER\DEBUG\GAME.OBJ|D:\USERS\USER-PC\DOCUMENTS\VISUAL STUDIO 2013\PROJECTS\YEAR2(2017)\TRIVIA PROJECT\SERVER\HW21_DANIELDAVIDOV_TRIVIA_V1\TRIVIAPROJECTDANIELANDITAY_V1\SERVER\DEBUG\HELPER.OBJ|D:\USERS\USER-PC\DOCUMENTS\VISUAL STUDIO 2013\PROJECTS\YEAR2(2017)\TRIVIA PROJECT\SERVER\HW21_DANIELDAVIDOV_TRIVIA_V1\TRIVIAPROJECTDANIELANDITAY_V1\SERVER\DEBUG\QUESTION.OBJ|D:\USERS\USER-PC\DOCUMENTS\VISUAL STUDIO 2013\PROJECTS\YEAR2(2017)\TRIVIA PROJECT\SERVER\HW21_DANIELDAVIDOV_TRIVIA_V1\TRIVIAPROJECTDANIELANDITAY_V1\SERVER\DEBUG\RECIEVEDMESSAGES.OBJ|D:\USERS\USER-PC\DOCUMENTS\VISUAL STUDIO 2013\PROJECTS\YEAR2(2017)\TRIVIA PROJECT\SERVER\HW21_DANIELDAVIDOV_TRIVIA_V1\TRIVIAPROJECTDANIELANDITAY_V1\SERVER\DEBUG\ROOM.OBJ|D:\USERS\USER-PC\DOCUMENTS\VISUAL STUDIO 2013\PROJECTS\YEAR2(2017)\TRIVIA PROJECT\SERVER\HW21_DANIELDAVIDOV_TRIVIA_V1\TRIVIAPROJECTDANIELANDITAY_V1\SERVER\DEBUG\SOURCE.OBJ|D:\USERS\USER-PC\DOCUMENTS\VISUAL STUDIO 2013\PROJECTS\YEAR2(2017)\TRIVIA PROJECT\SERVER\HW21_DANIELDAVIDOV_TRIVIA_V1\TRIVIAPROJECTDANIELANDITAY_V1\SERVER\DEBUG\SQLITE3.OBJ|D:\USERS\USER-PC\DOCUMENTS\VISUAL STUDIO 2013\PROJECTS\YEAR2(2017)\TRIVIA PROJECT\SERVER\HW21_DANIELDAVIDOV_TRIVIA_V1\TRIVIAPROJECTDANIELANDITAY_V1\SERVER\DEBUG\TRIVIASERVER.OBJ|D:\USERS\USER-PC\DOCUMENTS\VISUAL STUDIO 2013\PROJECTS\YEAR2(2017)\TRIVIA PROJECT\SERVER\HW21_DANIELDAVIDOV_TRIVIA_V1\TRIVIAPROJECTDANIELANDITAY_V1\SERVER\DEBUG\USER.OBJ|D:\USERS\USER-PC\DOCUMENTS\VISUAL STUDIO 2013\PROJECTS\YEAR2(2017)\TRIVIA PROJECT\SERVER\HW21_DANIELDAVIDOV_TRIVIA_V1\TRIVIAPROJECTDANIELANDITAY_V1\SERVER\DEBUG\VALIDATOR.OBJ|D:\USERS\USER-PC\DOCUMENTS\VISUAL STUDIO 2013\PROJECTS\YEAR2(2017)\TRIVIA PROJECT\SERVER\HW21_DANIELDAVIDOV_TRIVIA_V1\TRIVIAPROJECTDANIELANDITAY_V1\SERVER\DEBUG\WSAINITIALIZER.OBJ
D:\USERS\USER-PC\DOCUMENTS\VISUAL STUDIO 2013\PROJECTS\YEAR2(2017)\TRIVIA PROJECT\SERVER\HW21_DANIELDAVIDOV_TRIVIA_V1\TRIVIAPROJECTDANIELANDITAY_V1\DEBUG\SERVER.ILK
D:\USERS\USER-PC\DOCUMENTS\VISUAL STUDIO 2013\PROJECTS\YEAR2(2017)\TRIVIA PROJECT\SERVER\HW21_DANIELDAVIDOV_TRIVIA_V1\TRIVIAPROJECTDANIELANDITAY_V1\DEBUG\SERVER.EXE
D:\USERS\USER-PC\DOCUMENTS\VISUAL STUDIO 2013\PROJECTS\YEAR2(2017)\TRIVIA PROJECT\SERVER\HW21_DANIELDAVIDOV_TRIVIA_V1\TRIVIAPROJECTDANIELANDITAY_V1\DEBUG\SERVER.PDB
